{
  "username": "//input[@name=\"username\"]",
  "password": "//input[@name=\"password\"]",
  "login_button": "//button[contains(.,'Log in')]",
  "choose_app": "//*[@id=\"react-root\"]/div/div[2]/a[2]",
  "save_your_login_info": "//*[@id=\"react-root\"]/section/main/div/button",
  "search_link": "//*[@id=\"react-root\"]/section/main/article/div[1]/div/div/div[1]/div[1]/a",
  "share_link" : "//*[@id=\"react-root\"]/section/nav[2]/div/div/div[2]/div/div/div[3]",
  "first_element_text": "//*[@id=\"react-root\"]/section/main/div/div/article/div[2]/div[1]/ul/li[1]/div/div/div/span",
  "first_element": "//*[@id=\"react-root\"]/section/main/div/div[4]/article/div[1]/div/div[1]/div[1]/a",
  "first_media": "//*[@id=\"react-root\"]/section/main/div/div[3]/article/div[1]/div/div[1]/div[1]/a",
  "media": "//*[@id=\"react-root\"]/section/main/div/div/article/div[1]/div/div/div/a",
  "og_title": "//meta[@property=\"og::title\"]",
  "og_description": "//meta[@property=\"og:description\"]",
  "og_type": "//meta[@property=\"og:type\"]",
  "og_image": "//meta[@property=\"og:image\"]",
  "og_video": "//meta[@property=\"og:video\"]",
  "og_type_selector": "//*[@property=\"og:type\"]"
}